<?xml version="1.0" encoding="utf-8"?>
<!-- Generator: Avocode 2.4.3-3630f5a - http://avocode.com -->
<svg height="43" width="43" xmlns:xlink="http://www.w3.org/1999/xlink" xmlns="http://www.w3.org/2000/svg" viewBox="0 0 43 43">
    <path fill="#ffffff" fill-rule="evenodd" d="M 29.38 12.18 C 29.38 12.18 21.97 4.55 21.97 4.55 C 21.97 4.55 5.49 21.5 5.49 21.5 C 5.49 21.5 21.97 38.45 21.97 38.45 C 21.97 38.45 38.45 21.5 38.45 21.5 C 38.45 21.5 32.65 15.54 32.65 15.54 C 32.65 15.54 34.85 13.34 34.85 13.34 C 34.85 13.34 43.01 21.5 43.01 21.5 C 43.01 21.5 21.5 43.01 21.5 43.01 C 21.5 43.01 -0.01 21.5 -0.01 21.5 C -0.01 21.5 21.5 -0.01 21.5 -0.01 C 21.5 -0.01 31.53 10.03 31.53 10.03 C 31.53 10.03 29.38 12.18 29.38 12.18 Z" />
    <path fill="#ffffff" fill-rule="evenodd" d="M 25 13 C 25 13 32 6 32 6 C 32 6 32 13 32 13 C 32 13 25 13 25 13 Z" />
    <text font-weight="400" font-size="10" font-family="Arial" fill="#ffffff" y="31" x="17">
        <tspan>24</tspan>
    </text>
    <path fill="#ffffff" fill-rule="evenodd" d="M 14 20 C 14 20 23 20 23 20 C 23 20 23 22 23 22 C 23 22 14 22 14 22 C 14 22 14 20 14 20 Z" />
    <path fill="#ffffff" fill-rule="evenodd" d="M 21 9 C 21 9 23 9 23 9 C 23 9 23 22 23 22 C 23 22 21 22 21 22 C 21 22 21 9 21 9 Z" />
</svg>