<?xml version="1.0" encoding="utf-8"?>
<!-- Generator: Avocode 2.4.3-3630f5a - http://avocode.com -->
<svg height="52" width="169" xmlns:xlink="http://www.w3.org/1999/xlink" xmlns="http://www.w3.org/2000/svg" viewBox="0 0 169 52">
    <path fill="#8dbb1d" fill-rule="evenodd" d="M 25 0 C 25 0 140.71 0 140.71 0 C 140.71 0 167 26 167 26 C 167 26 140.71 52 140.71 52 C 140.71 52 25 52 25 52 C 25 52 0 26 0 26 C 0 26 25 0 25 0 Z" />
    <path fill="#ffffff" fill-rule="evenodd" d="M 139 4 C 139 4 147 4 147 4 C 147 4 169 25.97 169 25.97 C 169 25.97 147 48 147 48 C 147 48 139 48 139 48 C 139 48 161 25.97 161 25.97 C 161 25.97 139 4 139 4 Z" />
</svg>