<?xml version="1.0" encoding="utf-8"?>
<!-- Generator: Avocode 2.4.3-3630f5a - http://avocode.com -->
<svg height="40" width="29" xmlns:xlink="http://www.w3.org/1999/xlink" xmlns="http://www.w3.org/2000/svg" viewBox="0 0 29 40">
    <path fill="#ffffff" fill-rule="evenodd" d="M 1 0 C 1 0 9 0 9 0 C 9 0 29 20 29 20 C 29 20 9 40 9 40 C 9 40 0 40 0 40 C 0 40 20 20 20 20 C 20 20 1 0 1 0 Z" />
</svg>