<?xml version="1.0" encoding="utf-8"?>
<!-- Generator: Avocode 2.4.3-3630f5a - http://avocode.com -->
<svg height="32" width="32" xmlns:xlink="http://www.w3.org/1999/xlink" xmlns="http://www.w3.org/2000/svg" viewBox="0 0 32 32">
    <path fill="#ffffff" fill-rule="evenodd" d="M 0 32 C 0 32 0 0 0 0 C 0 0 32 0 32 0 C 32 0 32 32 32 32 C 32 32 0 32 0 32 Z M 23.15 7.15 C 23.15 6.42 22.55 5.82 21.82 5.82 C 21.82 5.82 11.15 5.82 11.15 5.82 C 10.42 5.82 9.82 6.42 9.82 7.15 C 9.82 7.15 9.82 9.82 9.82 9.82 C 9.82 9.82 11.15 9.82 11.15 9.82 C 11.15 9.82 11.15 7.15 11.15 7.15 C 11.15 7.15 21.82 7.15 21.82 7.15 C 21.82 7.15 21.82 9.82 21.82 9.82 C 21.82 9.82 23.15 9.82 23.15 9.82 C 23.15 9.82 23.15 7.15 23.15 7.15 Z M 27.15 12.49 C 27.15 11.75 26.55 11.15 25.82 11.15 C 25.82 11.15 7.15 11.15 7.15 11.15 C 6.42 11.15 5.82 11.75 5.82 12.49 C 5.82 12.49 5.82 20.49 5.82 20.49 C 5.82 21.22 6.42 21.82 7.15 21.82 C 7.15 21.82 9.82 21.82 9.82 21.82 C 9.82 21.82 9.82 25.82 9.82 25.82 C 9.82 26.56 10.42 27.15 11.15 27.15 C 11.15 27.15 21.82 27.15 21.82 27.15 C 22.55 27.15 23.15 26.56 23.15 25.82 C 23.15 25.82 23.15 21.82 23.15 21.82 C 23.15 21.82 25.82 21.82 25.82 21.82 C 26.55 21.82 27.15 21.22 27.15 20.49 C 27.15 20.49 27.15 12.49 27.15 12.49 Z M 24.49 15.15 C 23.75 15.15 23.15 14.56 23.15 13.82 C 23.15 13.08 23.75 12.49 24.49 12.49 C 25.22 12.49 25.82 13.08 25.82 13.82 C 25.82 14.56 25.22 15.15 24.49 15.15 Z M 11.15 17.82 C 11.15 17.82 21.82 17.82 21.82 17.82 C 21.82 17.82 21.82 25.82 21.82 25.82 C 21.82 25.82 11.15 25.82 11.15 25.82 C 11.15 25.82 11.15 17.82 11.15 17.82 Z M 12.49 23.15 C 12.49 23.15 19.15 23.15 19.15 23.15 C 19.15 23.15 19.15 21.82 19.15 21.82 C 19.15 21.82 12.49 21.82 12.49 21.82 C 12.49 21.82 12.49 23.15 12.49 23.15 Z M 12.49 20.49 C 12.49 20.49 20.49 20.49 20.49 20.49 C 20.49 20.49 20.49 19.15 20.49 19.15 C 20.49 19.15 12.49 19.15 12.49 19.15 C 12.49 19.15 12.49 20.49 12.49 20.49 Z" />
</svg>