<?xml version="1.0" encoding="utf-8"?>
<!-- Generator: Avocode 2.4.3-3630f5a - http://avocode.com -->
<svg height="45" width="45" xmlns:xlink="http://www.w3.org/1999/xlink" xmlns="http://www.w3.org/2000/svg" viewBox="0 0 45 45">
    <path fill="#ffffff" fill-rule="evenodd" d="M 0 45 C 0 45 0 0 0 0 C 0 0 45 0 45 0 C 45 0 45 45 45 45 C 45 45 0 45 0 45 Z M 19 13 C 19 13 15 13 15 13 C 15 13 15 9 15 9 C 15 9 12 9 12 9 C 12 9 12 13 12 13 C 12 13 8 13 8 13 C 8 13 8 20 8 20 C 8 20 12 20 12 20 C 12 20 12 36 12 36 C 12 36 15 36 15 36 C 15 36 15 20 15 20 C 15 20 19 20 19 20 C 19 20 19 13 19 13 Z M 24 9 C 24 9 21 9 21 9 C 21 9 21 26 21 26 C 21 26 17 26 17 26 C 17 26 17 33 17 33 C 17 33 21 33 21 33 C 21 33 21 36 21 36 C 21 36 24 36 24 36 C 24 36 24 33 24 33 C 24 33 28 33 28 33 C 28 33 28 26 28 26 C 28 26 24 26 24 26 C 24 26 24 9 24 9 Z M 37 16 C 37 16 33 16 33 16 C 33 16 33 9 33 9 C 33 9 30 9 30 9 C 30 9 30 16 30 16 C 30 16 26 16 26 16 C 26 16 26 23 26 23 C 26 23 30 23 30 23 C 30 23 30 36 30 36 C 30 36 33 36 33 36 C 33 36 33 23 33 23 C 33 23 37 23 37 23 C 37 23 37 16 37 16 Z M 28 18 C 28 18 35 18 35 18 C 35 18 35 21 35 21 C 35 21 28 21 28 21 C 28 21 28 18 28 18 Z M 19 28 C 19 28 26 28 26 28 C 26 28 26 31 26 31 C 26 31 19 31 19 31 C 19 31 19 28 19 28 Z M 10 15 C 10 15 17 15 17 15 C 17 15 17 18 17 18 C 17 18 10 18 10 18 C 10 18 10 15 10 15 Z" />
</svg>