<?xml version="1.0" encoding="utf-8"?>
<!-- Generator: Avocode 2.4.3-3630f5a - http://avocode.com -->
<svg height="20" width="20" xmlns:xlink="http://www.w3.org/1999/xlink" xmlns="http://www.w3.org/2000/svg" viewBox="0 0 20 20">
    <path fill="#ffffff" fill-rule="evenodd" d="M 19.7 20 C 19.7 20 0.3 20 0.3 20 C 0.14 20 0 19.86 0 19.69 C 0 19.69 0 6.56 0 6.56 C 0 6.45 0.05 6.36 0.14 6.3 C 0.14 6.3 9.84 0.05 9.84 0.05 C 9.94 -0.02 10.06 -0.02 10.16 0.05 C 10.16 0.05 19.86 6.3 19.86 6.3 C 19.95 6.36 20 6.45 20 6.56 C 20 6.56 20 19.69 20 19.69 C 20 19.86 19.86 20 19.7 20 Z M 15.38 9.29 C 15.38 9.29 15.38 5.28 15.38 5.28 C 15.38 5.28 4.62 5.28 4.62 5.28 C 4.62 5.28 4.62 9.29 4.62 9.29 C 4.62 9.29 2.63 8.27 2.63 8.27 C 2.63 8.27 6.62 11.38 6.62 11.38 C 6.62 11.38 3.59 15.54 3.59 15.54 C 3.59 15.54 7.43 12.01 7.43 12.01 C 7.43 12.01 9.57 13.69 9.57 13.69 C 9.57 13.69 10 14.02 10 14.02 C 10 14.02 10.43 13.69 10.43 13.69 C 10.43 13.69 12.57 12.01 12.57 12.01 C 12.57 12.01 16.41 15.54 16.41 15.54 C 16.41 15.54 13.39 11.38 13.39 11.38 C 13.39 11.38 17.37 8.27 17.37 8.27 C 17.37 8.27 15.38 9.29 15.38 9.29 Z M 6.77 6.57 C 6.77 6.57 13.23 6.57 13.23 6.57 C 13.23 6.57 13.23 7.67 13.23 7.67 C 13.23 7.67 6.77 7.67 6.77 7.67 C 6.77 7.67 6.77 6.57 6.77 6.57 Z M 12.54 9.83 C 12.54 9.83 7.46 9.83 7.46 9.83 C 7.46 9.83 7.46 8.73 7.46 8.73 C 7.46 8.73 12.54 8.73 12.54 8.73 C 12.54 8.73 12.54 9.83 12.54 9.83 Z" />
</svg>