<?xml version="1.0" encoding="utf-8"?>
<!-- Generator: Avocode 2.4.3-3630f5a - http://avocode.com -->
<svg height="85" width="66" xmlns:xlink="http://www.w3.org/1999/xlink" xmlns="http://www.w3.org/2000/svg" viewBox="0 0 66 85">
    <path fill="#6b50d6" fill-rule="evenodd" d="M 33 0 C 51.23 0 66 14.77 66 33 C 66 51.23 49.97 72.02 33 85 C 15.97 71.9 0 51.23 0 33 C 0 14.77 14.77 0 33 0 Z" />
    <path fill="#ffffff" fill-rule="evenodd" d="M 23.05 40 C 23.05 40 23.05 31.16 23.05 31.16 C 23.05 31.16 24.15 31.16 24.15 31.16 C 24.15 31.16 24.15 40 24.15 40 C 24.15 40 23.05 40 23.05 40 Z M 14.8 31.16 C 14.8 31.16 21.67 31.16 21.67 31.16 C 21.67 31.16 21.67 33.3 21.67 33.3 C 21.67 33.3 17.55 33.3 17.55 33.3 C 17.55 33.3 17.55 34.37 17.55 34.37 C 17.55 34.37 20.85 34.37 20.85 34.37 C 20.85 34.37 20.85 36.52 20.85 36.52 C 20.85 36.52 17.55 36.52 17.55 36.52 C 17.55 36.52 17.55 37.59 17.55 37.59 C 17.55 37.59 21.67 37.59 21.67 37.59 C 21.67 37.59 21.67 40 21.67 40 C 21.67 40 14.8 40 14.8 40 C 14.8 40 14.8 31.16 14.8 31.16 Z M 10.95 40 C 10.95 40 10.91 39.87 10.91 39.87 C 10.91 39.87 9.58 36.52 9.58 36.52 C 9.58 36.52 8.75 36.52 8.75 36.52 C 8.75 36.52 8.75 40 8.75 40 C 8.75 40 6 40 6 40 C 6 40 6 31.16 6 31.16 C 6 31.16 10.67 31.16 10.67 31.16 C 11.45 31.16 12.16 31.24 12.82 31.66 C 13.55 32.13 13.9 32.9 13.9 33.75 C 13.9 34.9 13.39 35.59 12.34 36.06 C 12.34 36.06 13.98 40 13.98 40 C 13.98 40 10.95 40 10.95 40 Z M 10.64 33.1 C 10.41 32.99 10.12 32.99 9.86 32.99 C 9.86 32.99 8.76 32.99 8.76 32.99 C 8.76 32.99 8.76 34.66 8.76 34.66 C 8.76 34.66 9.76 34.66 9.76 34.66 C 10.35 34.66 11.07 34.57 11.07 33.82 C 11.07 33.52 10.91 33.24 10.64 33.1 Z" />
    <path fill="#373838" fill-rule="evenodd" d="M 29.1 36.52 C 29.1 36.52 32.13 36.52 32.13 36.52 C 32.13 36.52 32.13 34.64 32.13 34.64 C 32.13 34.64 29.1 34.64 29.1 34.64 C 29.1 34.64 29.1 33.3 29.1 33.3 C 29.1 33.3 32.95 33.3 32.95 33.3 C 32.95 33.3 32.95 31.16 32.95 31.16 C 32.95 31.16 26.35 31.16 26.35 31.16 C 26.35 31.16 26.35 40 26.35 40 C 26.35 40 29.1 40 29.1 40 C 29.1 40 29.11 36.6 29.11 36.6 C 29.11 36.6 29.1 36.52 29.1 36.52 Z M 41.59 35.52 C 41.59 32.91 40.05 31 37.34 31 C 34.63 31 33.09 32.91 33.09 35.52 C 33.09 38.01 34.64 40 37.34 40 C 40.04 40 41.59 38.01 41.59 35.52 C 41.59 35.52 41.59 35.52 41.59 35.52 Z M 36 35.54 C 36 34.68 36.13 32.98 37.34 32.98 C 38.55 32.98 38.68 34.68 38.68 35.54 C 38.68 36.38 38.59 38 37.34 38 C 36.1 38 36 36.38 36 35.54 C 36 35.54 36 35.54 36 35.54 Z M 50.55 40 C 50.55 40 48.84 36.06 48.84 36.06 C 49.89 35.59 50.41 34.9 50.41 33.75 C 50.41 32.9 50.06 32.13 49.32 31.66 C 48.66 31.24 48.03 31.16 47.25 31.16 C 47.25 31.16 42.3 31.16 42.3 31.16 C 42.3 31.16 42.3 40 42.3 40 C 42.3 40 45.33 40 45.33 40 C 45.33 40 45.33 36.52 45.33 36.52 C 45.33 36.52 46.15 36.52 46.15 36.52 C 46.15 36.52 47.52 40 47.52 40 C 47.52 40 50.55 40 50.55 40 Z M 46.26 34.66 C 46.26 34.66 45.26 34.66 45.26 34.66 C 45.26 34.66 45.26 32.99 45.26 32.99 C 45.26 32.99 46.36 32.99 46.36 32.99 C 46.62 32.99 46.91 32.99 47.14 33.1 C 47.41 33.24 47.57 33.52 47.57 33.82 C 47.57 34.57 46.86 34.66 46.26 34.66 C 46.26 34.66 46.26 34.66 46.26 34.66 Z M 61 40 C 61 40 61 31.16 61 31.16 C 61 31.16 57.42 31.16 57.42 31.16 C 57.42 31.16 56.24 35.77 56.24 35.77 C 56.24 35.77 56.21 35.77 56.21 35.77 C 56.21 35.77 54.95 31.16 54.95 31.16 C 54.95 31.16 51.38 31.16 51.38 31.16 C 51.38 31.16 51.38 40 51.38 40 C 51.38 40 53.58 40 53.58 40 C 53.58 40 53.58 33.84 53.58 33.84 C 53.58 33.84 55.23 40 55.23 40 C 55.23 40 56.88 40 56.88 40 C 56.88 40 58.52 33.84 58.52 33.84 C 58.52 33.84 58.52 40 58.52 40 C 58.52 40 61 40 61 40 Z" />
    <path fill="#ffffff" fill-rule="evenodd" d="M 40 14 C 40 14 48 14 48 14 C 48 14 41 21 41 21 C 41 21 48 28 48 28 C 48 28 39.6 28 39.6 28 C 39.6 28 33 21 33 21 C 33 21 40 14 40 14 Z" />
    <path fill="#ffffff" fill-rule="evenodd" d="M 28 7 C 28 7 20 7 20 7 C 20 7 27 14 27 14 C 27 14 20 21 20 21 C 20 21 28.4 21 28.4 21 C 28.4 21 35 14 35 14 C 35 14 28 7 28 7 Z" />
</svg>