<?xml version="1.0" encoding="utf-8"?>
<!-- Generator: Avocode 2.4.3-3630f5a - http://avocode.com -->
<svg height="49" width="61" xmlns:xlink="http://www.w3.org/1999/xlink" xmlns="http://www.w3.org/2000/svg" viewBox="0 0 61 49">
    <path fill="#ffffff" fill-rule="evenodd" d="M 49.56 0 C 44.3 0 40.03 4.22 40.03 9.42 C 40.03 10.83 40.34 12.17 40.9 13.36 C 40.9 13.36 49.56 30.15 49.56 30.15 C 49.56 30.15 58.22 13.36 58.22 13.36 C 58.78 12.17 59.09 10.83 59.09 9.42 C 59.09 4.22 54.83 0 49.56 0 Z M 49.56 15.08 C 46.4 15.08 43.84 12.54 43.84 9.42 C 43.84 6.3 46.4 3.77 49.56 3.77 C 52.72 3.77 55.28 6.3 55.28 9.42 C 55.28 12.54 52.72 15.08 49.56 15.08 Z M 52.41 32.92 C 52.41 32.92 55.88 39.78 55.88 39.78 C 55.88 39.78 47.09 44.12 47.09 44.12 C 47.09 44.12 44.14 29.54 44.14 29.54 C 44.14 29.54 44.63 29.05 44.63 29.05 C 44.63 29.05 44.68 29 44.68 29 C 44.68 29 42.87 25.46 42.87 25.46 C 42.87 25.46 41.94 26.38 41.94 26.38 C 41.94 26.38 30.5 18.85 30.5 18.85 C 30.5 18.85 19.06 26.38 19.06 26.38 C 19.06 26.38 11.44 18.85 11.44 18.85 C 11.44 18.85 0 41.46 0 41.46 C 0 41.46 15.25 49 15.25 49 C 15.25 49 30.5 41.46 30.5 41.46 C 30.5 41.46 45.75 49 45.75 49 C 45.75 49 61 41.46 61 41.46 C 61 41.46 54.57 28.74 54.57 28.74 C 54.57 28.74 52.41 32.92 52.41 32.92 Z M 13.91 44.12 C 13.91 44.12 5.12 39.78 5.12 39.78 C 5.12 39.78 12.48 25.21 12.48 25.21 C 12.48 25.21 16.37 29.05 16.37 29.05 C 16.37 29.05 16.86 29.54 16.86 29.54 C 16.86 29.54 13.91 44.12 13.91 44.12 Z M 28.59 38.19 C 28.59 38.19 17.93 43.46 17.93 43.46 C 17.93 43.46 20.69 29.85 20.69 29.85 C 20.69 29.85 21.18 29.52 21.18 29.52 C 21.18 29.52 28.59 24.63 28.59 24.63 C 28.59 24.63 28.59 38.19 28.59 38.19 Z M 32.41 38.19 C 32.41 38.19 32.41 24.63 32.41 24.63 C 32.41 24.63 39.82 29.52 39.82 29.52 C 39.82 29.52 40.31 29.85 40.31 29.85 C 40.31 29.85 43.07 43.46 43.07 43.46 C 43.07 43.46 32.41 38.19 32.41 38.19 Z" />
</svg>