<?xml version="1.0" encoding="utf-8"?>
<!-- Generator: Avocode 2.4.3-3630f5a - http://avocode.com -->
<svg height="85" width="66" xmlns:xlink="http://www.w3.org/1999/xlink" xmlns="http://www.w3.org/2000/svg" viewBox="0 0 66 85">
    <path fill="#a3d726" fill-rule="evenodd" d="M 33 0 C 51.23 0 66 14.77 66 33 C 66 51.23 49.97 72.02 33 85 C 15.97 71.9 0 51.23 0 33 C 0 14.77 14.77 0 33 0 Z" />
    <text font-weight="700" font-size="48" font-family="Arial" fill="#ffffff" y="53" x="22">
        <tspan>Р</tspan>
    </text>
</svg>